Mod_Nocturno/simulation/qsim/Mod_Nocturno.msim.vcd
$comment
	File created using the following command:
		vcd file Mod_Nocturno.msim.vcd -direction
$end
$date
	Wed Sep 27 12:16:13 2023
$end
$version
	ModelSim Version 10.1d
$end
$timescale
	1ps
$end
$scope module Mod_Nocturno_vlg_vec_tst $end
$var reg 1 ! clk $end
$var reg 1 " noche $end
$var wire 1 # Sem1 [2] $end
$var wire 1 $ Sem1 [1] $end
$var wire 1 % Sem1 [0] $end
$var wire 1 & Sem2 $end
$var wire 1 ' Sem3 [2] $end
$var wire 1 ( Sem3 [1] $end
$var wire 1 ) Sem3 [0] $end
$var wire 1 * Sem4 $end
$var wire 1 + sampler $end
$scope module i1 $end
$var wire 1 , gnd $end
$var wire 1 - vcc $end
$var wire 1 . unknown $end
$var tri1 1 / devclrn $end
$var tri1 1 0 devpor $end
$var tri1 1 1 devoe $end
$var wire 1 2 Sem1[0]~output_o $end
$var wire 1 3 Sem1[1]~output_o $end
$var wire 1 4 Sem1[2]~output_o $end
$var wire 1 5 Sem2~output_o $end
$var wire 1 6 Sem3[0]~output_o $end
$var wire 1 7 Sem3[1]~output_o $end
$var wire 1 8 Sem3[2]~output_o $end
$var wire 1 9 Sem4~output_o $end
$var wire 1 : clk~input_o $end
$var wire 1 ; clk~inputclkctrl_outclk $end
$var wire 1 < L0|Add0~0_combout $end
$var wire 1 = L0|Add0~1 $end
$var wire 1 > L0|Add0~2_combout $end
$var wire 1 ? L0|Add0~3 $end
$var wire 1 @ L0|Add0~4_combout $end
$var wire 1 A L0|Add0~5 $end
$var wire 1 B L0|Add0~6_combout $end
$var wire 1 C L0|Add0~7 $end
$var wire 1 D L0|Add0~8_combout $end
$var wire 1 E L0|Add0~9 $end
$var wire 1 F L0|Add0~10_combout $end
$var wire 1 G L0|Add0~11 $end
$var wire 1 H L0|Add0~12_combout $end
$var wire 1 I L0|count2~12_combout $end
$var wire 1 J L0|Add0~13 $end
$var wire 1 K L0|Add0~14_combout $end
$var wire 1 L L0|Add0~15 $end
$var wire 1 M L0|Add0~16_combout $end
$var wire 1 N L0|Add0~17 $end
$var wire 1 O L0|Add0~18_combout $end
$var wire 1 P L0|Add0~19 $end
$var wire 1 Q L0|Add0~20_combout $end
$var wire 1 R L0|Add0~21 $end
$var wire 1 S L0|Add0~22_combout $end
$var wire 1 T L0|count2~11_combout $end
$var wire 1 U L0|Add0~23 $end
$var wire 1 V L0|Add0~24_combout $end
$var wire 1 W L0|count2~10_combout $end
$var wire 1 X L0|Add0~25 $end
$var wire 1 Y L0|Add0~26_combout $end
$var wire 1 Z L0|count2~9_combout $end
$var wire 1 [ L0|Add0~27 $end
$var wire 1 \ L0|Add0~28_combout $end
$var wire 1 ] L0|count2~8_combout $end
$var wire 1 ^ L0|Add0~29 $end
$var wire 1 _ L0|Add0~30_combout $end
$var wire 1 ` L0|Add0~31 $end
$var wire 1 a L0|Add0~32_combout $end
$var wire 1 b L0|count2~7_combout $end
$var wire 1 c L0|Add0~33 $end
$var wire 1 d L0|Add0~34_combout $end
$var wire 1 e L0|Add0~35 $end
$var wire 1 f L0|Add0~36_combout $end
$var wire 1 g L0|count2~6_combout $end
$var wire 1 h L0|Add0~37 $end
$var wire 1 i L0|Add0~38_combout $end
$var wire 1 j L0|count2~5_combout $end
$var wire 1 k L0|Add0~39 $end
$var wire 1 l L0|Add0~40_combout $end
$var wire 1 m L0|count2~4_combout $end
$var wire 1 n L0|Add0~41 $end
$var wire 1 o L0|Add0~42_combout $end
$var wire 1 p L0|count2~3_combout $end
$var wire 1 q L0|Add0~43 $end
$var wire 1 r L0|Add0~44_combout $end
$var wire 1 s L0|count2~2_combout $end
$var wire 1 t L0|Add0~45 $end
$var wire 1 u L0|Add0~46_combout $end
$var wire 1 v L0|Add0~47 $end
$var wire 1 w L0|Add0~49 $end
$var wire 1 x L0|Add0~50_combout $end
$var wire 1 y L0|Equal0~7_combout $end
$var wire 1 z L0|Equal0~1_combout $end
$var wire 1 { L0|Equal0~0_combout $end
$var wire 1 | L0|Equal0~2_combout $end
$var wire 1 } L0|Equal0~3_combout $end
$var wire 1 ~ L0|Equal0~4_combout $end
$var wire 1 !! L0|Equal0~5_combout $end
$var wire 1 "! L0|Equal0~6_combout $end
$var wire 1 #! L0|count2~13_combout $end
$var wire 1 $! L0|Add0~48_combout $end
$var wire 1 %! L0|Equal0~8_combout $end
$var wire 1 &! L0|out2~0_combout $end
$var wire 1 '! L0|out2~q $end
$var wire 1 (! L0|out2~clkctrl_outclk $end
$var wire 1 )! L1|Cont[0]~3_combout $end
$var wire 1 *! noche~input_o $end
$var wire 1 +! L1|Cont~0_combout $end
$var wire 1 ,! L1|Cont~1_combout $end
$var wire 1 -! Sal~0_combout $end
$var wire 1 .! L1|Cont [2] $end
$var wire 1 /! L1|Cont [1] $end
$var wire 1 0! L1|Cont [0] $end
$var wire 1 1! L0|count2 [25] $end
$var wire 1 2! L0|count2 [24] $end
$var wire 1 3! L0|count2 [23] $end
$var wire 1 4! L0|count2 [22] $end
$var wire 1 5! L0|count2 [21] $end
$var wire 1 6! L0|count2 [20] $end
$var wire 1 7! L0|count2 [19] $end
$var wire 1 8! L0|count2 [18] $end
$var wire 1 9! L0|count2 [17] $end
$var wire 1 :! L0|count2 [16] $end
$var wire 1 ;! L0|count2 [15] $end
$var wire 1 <! L0|count2 [14] $end
$var wire 1 =! L0|count2 [13] $end
$var wire 1 >! L0|count2 [12] $end
$var wire 1 ?! L0|count2 [11] $end
$var wire 1 @! L0|count2 [10] $end
$var wire 1 A! L0|count2 [9] $end
$var wire 1 B! L0|count2 [8] $end
$var wire 1 C! L0|count2 [7] $end
$var wire 1 D! L0|count2 [6] $end
$var wire 1 E! L0|count2 [5] $end
$var wire 1 F! L0|count2 [4] $end
$var wire 1 G! L0|count2 [3] $end
$var wire 1 H! L0|count2 [2] $end
$var wire 1 I! L0|count2 [1] $end
$var wire 1 J! L0|count2 [0] $end
$upscope $end
$upscope $end
$enddefinitions $end
#0
$dumpvars
0!
0"
0%
0$
x#
x&
0)
0(
x'
x*
x+
0,
1-
x.
1/
10
11
02
03
x4
x5
06
07
x8
x9
0:
0;
1<
0=
0>
1?
0@
0A
0B
1C
0D
0E
0F
1G
0H
0I
0J
0K
1L
0M
0N
0O
1P
0Q
0R
0S
0T
1U
0V
0W
0X
0Y
0Z
1[
0\
0]
0^
0_
1`
0a
0b
0c
0d
1e
0f
0g
0h
0i
0j
1k
0l
0m
0n
0o
0p
1q
0r
0s
0t
0u
1v
0w
0x
0y
0z
0{
0|
0}
0~
0!!
0"!
0#!
0$!
0%!
0&!
0'!
0(!
1)!
0*!
0+!
0,!
x-!
00!
0/!
0.!
0J!
0I!
0H!
0G!
0F!
0E!
0D!
0C!
0B!
0A!
0@!
0?!
0>!
0=!
0<!
0;!
0:!
09!
08!
07!
06!
05!
04!
03!
02!
01!
$end
#15000
1!
1:
1;
0+
1J!
1=
0<
1>
1{
0{
#30000
0!
0:
0;
1+
#45000
1!
1:
1;
0+
1I!
0J!
0?
0>
0=
1<
1@
1?
1>
0@
#60000
0!
0:
0;
1+
#75000
1!
1:
1;
0+
1J!
1=
0<
0?
0>
1@
1{
0{
#90000
0!
0:
0;
1+
#105000
1!
1:
1;
0+
1H!
0I!
0J!
1A
0@
1?
1>
0=
1<
1B
0A
1@
0>
0B
#120000
0!
0:
0;
1+
#135000
1!
1:
1;
0+
1J!
1=
0<
1>
#150000
0!
0:
0;
1+
#165000
1!
1:
1;
0+
1I!
0J!
0?
0>
0=
1<
1A
0@
1?
1>
1B
0A
1@
0B
#180000
0!
0:
0;
1+
#195000
1!
1:
1;
0+
1J!
1=
0<
0?
0>
1A
0@
1B
1{
0{
#210000
0!
0:
0;
1+
#225000
1!
1:
1;
0+
1G!
0H!
0I!
0J!
0C
0B
0A
1@
1?
1>
0=
1<
1D
1C
1B
0@
0>
0D
#240000
0!
0:
0;
1+
#255000
1!
1:
1;
0+
1J!
1=
0<
1>
#270000
0!
0:
0;
1+
#285000
1!
1:
1;
0+
1I!
0J!
0?
0>
0=
1<
1@
1?
1>
0@
#300000
0!
0:
0;
1+
#315000
1!
1:
1;
0+
1J!
1=
0<
0?
0>
1@
#330000
0!
0:
0;
1+
#345000
1!
1:
1;
0+
1H!
0I!
0J!
1A
0@
1?
1>
0=
1<
0C
0B
0A
1@
0>
1D
1C
1B
0D
#360000
0!
0:
0;
1+
#375000
1!
1:
1;
0+
1J!
1=
0<
1>
#390000
0!
0:
0;
1+
#405000
1!
1:
1;
0+
1I!
0J!
0?
0>
0=
1<
1A
0@
1?
1>
0C
0B
0A
1@
1D
1C
1B
0D
#420000
0!
0:
0;
1+
#435000
1!
1:
1;
0+
1J!
1=
0<
0?
0>
1A
0@
0C
0B
1D
1{
#450000
0!
0:
0;
1+
#465000
1!
1:
1;
0+
1F!
0G!
0H!
0I!
0J!
1E
0D
1C
1B
0A
1@
1?
1>
0=
1<
1F
0E
1D
0{
0B
0@
0>
0F
#480000
0!
0:
0;
1+
#495000
1!
1:
1;
0+
1J!
1=
0<
1>
1{
0{
#510000
0!
0:
0;
1+
#525000
1!
1:
1;
0+
1I!
0J!
0?
0>
0=
1<
1@
1?
1>
0@
#540000
0!
0:
0;
1+
#555000
1!
1:
1;
0+
1J!
1=
0<
0?
0>
1@
1{
0{
#570000
0!
0:
0;
1+
#585000
1!
1:
1;
0+
1H!
0I!
0J!
1A
0@
1?
1>
0=
1<
1B
0A
1@
0>
0B
#600000
0!
0:
0;
1+
#615000
1!
1:
1;
0+
1J!
1=
0<
1>
#630000
0!
0:
0;
1+
#645000
1!
1:
1;
0+
1I!
0J!
0?
0>
0=
1<
1A
0@
1?
1>
1B
0A
1@
0B
#660000
0!
0:
0;
1+
#675000
1!
1:
1;
0+
1J!
1=
0<
0?
0>
1A
0@
1B
1{
0{
#690000
0!
0:
0;
1+
#705000
1!
1:
1;
0+
1G!
0H!
0I!
0J!
0C
0B
0A
1@
1?
1>
0=
1<
1E
0D
1C
1B
0@
0>
1F
0E
1D
0F
#720000
0!
0:
0;
1+
#735000
1!
1:
1;
0+
1J!
1=
0<
1>
#750000
0!
0:
0;
1+
#765000
1!
1:
1;
0+
1I!
0J!
0?
0>
0=
1<
1@
1?
1>
0@
#780000
0!
0:
0;
1+
#795000
1!
1:
1;
0+
1J!
1=
0<
0?
0>
1@
#810000
0!
0:
0;
1+
#825000
1!
1:
1;
0+
1H!
0I!
0J!
1A
0@
1?
1>
0=
1<
0C
0B
0A
1@
0>
1E
0D
1C
1B
1F
0E
1D
0F
#840000
0!
0:
0;
1+
#855000
1!
1:
1;
0+
1J!
1=
0<
1>
#870000
0!
0:
0;
1+
#885000
1!
1:
1;
0+
1I!
0J!
0?
0>
0=
1<
1A
0@
1?
1>
0C
0B
0A
1@
1E
0D
1C
1B
1F
0E
1D
0F
#900000
0!
0:
0;
1+
#915000
1!
1:
1;
0+
1J!
1=
0<
0?
0>
1A
0@
0C
0B
1E
0D
1{
1F
#930000
0!
0:
0;
1+
#945000
1!
1:
1;
0+
1E!
0F!
0G!
0H!
0I!
0J!
0G
0F
0E
1D
1C
1B
0A
1@
1?
1>
0=
1<
1H
1G
1F
0D
0{
0B
0@
0>
1I
0H
0I
#960000
0!
0:
0;
1+
#975000
1!
1:
1;
0+
1J!
1=
0<
1>
1{
0{
#990000
0!
0:
0;
1+
